{
  "project_info": {
    "project_number": "268637827191",
    "firebase_url": "https://pixter-1155e.firebaseio.com",
    "project_id": "pixter-1155e",
    "storage_bucket": "pixter-1155e.appspot.com"
  },
  "client": [
    {
      "client_info": {
        "mobilesdk_app_id": "1:268637827191:android:02d5c9a277c99315f35672",
        "android_client_info": {
          "package_name": "com.pixter"
        }
      },
      "oauth_client": [
        {
          "client_id": "268637827191-06944toaltkdc5ptit2b8dvrs12mqgrf.apps.googleusercontent.com",
          "client_type": 3
        }
      ],
      "api_key": [
        {
          "current_key": "AIzaSyB3GQ7XJa-VRksBmNCRc89mG2OuGrCD3nc"
        }
      ],
      "services": {
        "appinvite_service": {
          "other_platform_oauth_client": [
            {
              "client_id": "268637827191-06944toaltkdc5ptit2b8dvrs12mqgrf.apps.googleusercontent.com",
              "client_type": 3
            }
          ]
        }
      }
    }
  ],
  "configuration_version": "1"
}